$ANSIBLE_VAULT;1.1;AES256
32663262313035323030373131616535393737353037326233316634356435626562386562626232
6266396232316261633330313139393537623364333536310a633236323465373538333939356562
65386162316666656333366430656161643938636532313766666235623063353263376562646535
3737363435393733380a393733393231313363326132333562383239383539383463656530306662
66326463663533336138326266613031396161326362303833303337373865343462373337663737
64613238373262613834313138633739376533633833336263663733643764633633613333343964
61663961623637303433393036633539613830383837613164376630396562393664356365306636
64613237333731663530616465666538326437353439326337343163363964306230303432306362
38386363633935396235633438323631663035646363376365356430396566616331373939396135
63633531313366356634326363666662366630346532343533316436343638363038613866633562
65333764303434323331663366656136326135623431353063616633653163313866633137303233
37353263383638616633343735656463663361383162646461643563363265613733363539396263
35386166316163383535373965393135646266643633646438633261326132393364363432376162
66383065643966313639636538393132656536633638356235633837626639333839383331303361
32316163373765346532363839393532333865326635376539663734383832386434393738646539
35333364366438356663343838343534303532646633616264613837653130373732313261383935
39643136646531333235353663386536363933666232373937383936373764396464613761623438
30343139313139623832386562333865663163643830313636653766613530666436376165623535
37643238633538316235653864613262343438303034336130353936656663643139643737393839
66653364356537323738623761333537353430373332616331353064633463353430376461333661
39306664393331353665386230303432313030386132623162323132393133626130343561626464
38333738356565383531333061623430393864316366646266346136373863643332316562653134
33653161643038663839316230633539646638356462643739663863623837323333383961336565
31396266386433613666353463653265313266313966663634396334386261393666396164363734
30323130323236613334336633376162373238323137633830316538336165376532653731333930
37626134376136363931326331336433313766646564356137656233623462636462623934316336
63613839643238363435333431343062366664646462323863306235366534636234623631623066
62303265383661373331363633373739323639303966613436653534333733343431613762323364
33653536323830653566353331393838326338376164336361346164313832336264383436616333
35366462643239373263666232613432343131376134633330363639316363353961646236633561
65306131393866356336663237373438336430393730323435386464336466613630376630353935
39323765356165623032643533303964616461306663323438303932626466376633646532643063
32623633383964383732626565353937636465363062383835343536346532656238303662656432
37393133633937386261633739653638626164303531653761343262313030393138643836383162
66633934613337383030323538643530623233336265613261643362653361323538336565666465
65666232303465373163333339363436346136393739636266316439383731343561316535633964
34363964613264323133616261313435316231656166373465363465633832396664373063333731
33656236313831393061306565306134656333303062363136323532363638656534633037333838
61626361633238376637336465376433666163376238636634333233333834376266303164653332
32646166646566613937323534306638383736313339336537616233373238313937653364653865
33356166636563613131636630623938313361343437356539386165333463336336383535393932
36353336333862313632306431326430633062393637613737393033343639356362373663376363
63396530613732393738633637333261646437333735383037666262643936316236363735336562
63656131356331653463323130613363666432396532623831313463623139313362393962613939
30336132373332353936323231393030396565393865623663373831633934616636643535613366
64346336363139666364336664626438653561663566623130643930653666313634363336303365
35383333316361633365373535313534353438643763626339353737363839316532636237653261
39383337393066633865633736303361383137356663316538326634663334303335333938383136
34363864363739643336303933326438396431666465396335343437316165353561633333653139
35303536343739373534626332336430376335383962636663353831663130386565643264333739
64333236336464303065393965343834666565393533353332643065656466613339643762383730
34623331303033303131393462653937616234333730333634613162393866353663326265373463
65666435356236346633623861663263653664343131663436353134633531393565613338663438
61383936326332326636646234333532393237613131303739393663656335646366333666626136
37616565623463363131643565353737316366326336323039366164383230366633643231363566
38306132376564396333616137313266343666353663613838313837313538396237313863393430
30383537646135323630356636646465616365663764353166346662643336653639653436646637
37393830356231656164313137356262343364393034636365646265666536626439376634353136
65616262393664623830366533666338393362613832306637656533353537366631613666353832
31336166396463386635646634373665386462373636316231316231366461373532393133353763
61313766643865303033373132323031626331393139343138656335313830623666383762386636
6236396434663038626463613265353866623938613536323238
