$ANSIBLE_VAULT;1.1;AES256
63353633316435663932663231373339353463356233373336656134353633323866306337363832
6133373365636332623438656566313130626231346565620a623563653438353636366663366466
63623832376239333738633337373131316365646661363539386535663532386537373363626539
3035393134313237350a353030626165616631303262616230326535623365363139616235343332
61326463316637633238646361346130636532613961633835643239353931643433
