{
  "$schema":  "https://raw.githubusercontent.com/jetify-com/devbox/0.13.6/.schema/devbox.schema.json",
  "packages": ["ansible@latest"],
  "shell": {
    "init_hook": [
      "echo 'Welcome to devbox!' > /dev/null"
    ],
    "scripts": {
      "test": [
        "echo \"Error: no test specified\" && exit 1"
      ]
    }
  }
}
